[
  {
    "_id": 1,
    "lable": "service - 1"
  },
  {
    "_id": 2,
    "lable": "service - 2"
  },
  {
    "_id": 3,
    "lable": "service - 3"
  },
  {
    "_id": 4,
    "lable": "service - 4"
  },
  {
    "_id": 5,
    "lable": "service - 5"
  }
]