[
  {
    "_id": 1,
    "lable": "pcf - 1"
  },
  {
    "_id": 2,
    "lable": "pcf - 2"
  },
  {
    "_id": 3,
    "lable": "pcf - 3"
  },
  {
    "_id": 4,
    "lable": "pcf - 4"
  },
  {
    "_id": 5,
    "lable": "pcf - 5"
  }
]